%YAML 1.1
%TAG !u! tag:unity3d.com,2011:
--- !u!74 &7400000
AnimationClip:
  m_ObjectHideFlags: 0
  m_PrefabParentObject: {fileID: 0}
  m_PrefabInternal: {fileID: 0}
  m_Name: Sourie1
  serializedVersion: 6
  m_Legacy: 0
  m_Compressed: 0
  m_UseHighQualityCurve: 1
  m_RotationCurves: []
  m_CompressedRotationCurves: []
  m_EulerCurves: []
  m_PositionCurves: []
  m_ScaleCurves: []
  m_FloatCurves:
  - curve:
      serializedVersion: 2
      m_Curve:
      - time: 0
        value: 126.7
        inSlope: -44.909084
        outSlope: -44.909084
        tangentMode: 10
      - time: 0.55
        value: 102
        inSlope: -10.845845
        outSlope: -10.845845
        tangentMode: 10
      - time: 1.3166667
        value: 119.8
        inSlope: 51.99894
        outSlope: 51.99894
        tangentMode: 10
      - time: 2
        value: 175
        inSlope: 10.202749
        outSlope: 10.202749
        tangentMode: 10
      - time: 2.8
        value: 126.70001
        inSlope: -60.37499
        outSlope: -60.37499
        tangentMode: 10
      m_PreInfinity: 2
      m_PostInfinity: 2
      m_RotationOrder: 4
    attribute: m_AnchoredPosition.x
    path: 
    classID: 224
    script: {fileID: 0}
  - curve:
      serializedVersion: 2
      m_Curve:
      - time: 0
        value: 12.7
        inSlope: 57.45454
        outSlope: 57.45454
        tangentMode: 10
      - time: 0.55
        value: 44.3
        inSlope: 6.879446
        outSlope: 6.879446
        tangentMode: 10
      - time: 1.3166667
        value: 10.8
        inSlope: 6.835106
        outSlope: 6.835106
        tangentMode: 10
      - time: 2
        value: 50
        inSlope: 5.370426
        outSlope: 5.370426
        tangentMode: 10
      - time: 2.8
        value: 12.699997
        inSlope: -46.625008
        outSlope: -46.625008
        tangentMode: 10
      m_PreInfinity: 2
      m_PostInfinity: 2
      m_RotationOrder: 4
    attribute: m_AnchoredPosition.y
    path: 
    classID: 224
    script: {fileID: 0}
  m_PPtrCurves: []
  m_SampleRate: 60
  m_WrapMode: 0
  m_Bounds:
    m_Center: {x: 0, y: 0, z: 0}
    m_Extent: {x: 0, y: 0, z: 0}
  m_ClipBindingConstant:
    genericBindings:
    - path: 0
      attribute: 1460864421
      script: {fileID: 0}
      classID: 224
      customType: 0
      isPPtrCurve: 0
    - path: 0
      attribute: 538195251
      script: {fileID: 0}
      classID: 224
      customType: 0
      isPPtrCurve: 0
    pptrCurveMapping: []
  m_AnimationClipSettings:
    serializedVersion: 2
    m_AdditiveReferencePoseClip: {fileID: 0}
    m_AdditiveReferencePoseTime: 0
    m_StartTime: 0
    m_StopTime: 2.8
    m_OrientationOffsetY: 0
    m_Level: 0
    m_CycleOffset: 0
    m_HasAdditiveReferencePose: 0
    m_LoopTime: 0
    m_LoopBlend: 0
    m_LoopBlendOrientation: 0
    m_LoopBlendPositionY: 0
    m_LoopBlendPositionXZ: 0
    m_KeepOriginalOrientation: 0
    m_KeepOriginalPositionY: 1
    m_KeepOriginalPositionXZ: 0
    m_HeightFromFeet: 0
    m_Mirror: 0
  m_EditorCurves:
  - curve:
      serializedVersion: 2
      m_Curve:
      - time: 0
        value: 126.7
        inSlope: -44.909084
        outSlope: -44.909084
        tangentMode: 10
      - time: 0.55
        value: 102
        inSlope: -10.845845
        outSlope: -10.845845
        tangentMode: 10
      - time: 1.3166667
        value: 119.8
        inSlope: 51.99894
        outSlope: 51.99894
        tangentMode: 10
      - time: 2
        value: 175
        inSlope: 10.202749
        outSlope: 10.202749
        tangentMode: 10
      - time: 2.8
        value: 126.70001
        inSlope: -60.37499
        outSlope: -60.37499
        tangentMode: 10
      m_PreInfinity: 2
      m_PostInfinity: 2
      m_RotationOrder: 4
    attribute: m_AnchoredPosition.x
    path: 
    classID: 224
    script: {fileID: 0}
  - curve:
      serializedVersion: 2
      m_Curve:
      - time: 0
        value: 12.7
        inSlope: 57.45454
        outSlope: 57.45454
        tangentMode: 10
      - time: 0.55
        value: 44.3
        inSlope: 6.879446
        outSlope: 6.879446
        tangentMode: 10
      - time: 1.3166667
        value: 10.8
        inSlope: 6.835106
        outSlope: 6.835106
        tangentMode: 10
      - time: 2
        value: 50
        inSlope: 5.370426
        outSlope: 5.370426
        tangentMode: 10
      - time: 2.8
        value: 12.699997
        inSlope: -46.625008
        outSlope: -46.625008
        tangentMode: 10
      m_PreInfinity: 2
      m_PostInfinity: 2
      m_RotationOrder: 4
    attribute: m_AnchoredPosition.y
    path: 
    classID: 224
    script: {fileID: 0}
  m_EulerEditorCurves: []
  m_HasGenericRootTransform: 0
  m_HasMotionFloatCurves: 0
  m_GenerateMotionCurves: 0
  m_Events: []
