%YAML 1.1
%TAG !u! tag:unity3d.com,2011:
--- !u!114 &11400000
MonoBehaviour:
  m_ObjectHideFlags: 0
  m_PrefabParentObject: {fileID: 0}
  m_PrefabInternal: {fileID: 0}
  m_GameObject: {fileID: 0}
  m_Enabled: 1
  m_EditorHideFlags: 0
  m_Script: {fileID: 11500000, guid: 738bb42164f8b7f4393ba25454c3547d, type: 3}
  m_Name: SoundDictionaryDatabase
  m_EditorClassIdentifier: 
  content:
    beatBox:
    - {fileID: 8300000, guid: 0e4e2ea0d8ab81e41b6eade38b8a9509, type: 3}
    ambiance:
    - {fileID: 8300000, guid: b638481bdc668b4498ea1c278f6300c0, type: 3}
    - {fileID: 8300000, guid: 02fe0a19ff7ac044a879093443d7c72c, type: 3}
    - {fileID: 8300000, guid: fb4149d9e7340c4448be62f03f14a8ad, type: 3}
    - {fileID: 8300000, guid: 4887797062f0fcc41926855aa1d2a274, type: 3}
    - {fileID: 8300000, guid: 938062b25e0f58a4fa6b8cb1b64c8c19, type: 3}
    - {fileID: 8300000, guid: 0c8a5af68caf96f4ab15372db0d74291, type: 3}
    - {fileID: 8300000, guid: 60813802fc2160946b7bf66246498001, type: 3}
    - {fileID: 8300000, guid: 32dfc9f2bab22b548b3a6f020755d6d3, type: 3}
    - {fileID: 8300000, guid: 2a38f58c303df9a44a7c59cec1c68e81, type: 3}
    conversation:
    - {fileID: 8300000, guid: 7ffe0803c450ceb47967a9b2b106fdee, type: 3}
    - {fileID: 8300000, guid: 1c423a086348eba4899e2cd8bd764670, type: 3}
    - {fileID: 8300000, guid: b2b163e4bf120d24288ef3ff2d6b945d, type: 3}
    - {fileID: 8300000, guid: 734599f90b4a7ba4996f9bde52bc9f8b, type: 3}
    - {fileID: 8300000, guid: df55e4364f45b774b9e503aba1c051dc, type: 3}
    - {fileID: 8300000, guid: f10c44e60ee9b8e46947a20caced13ad, type: 3}
    - {fileID: 8300000, guid: f9e73bdcef4e2564e8dbcb5cd11e9f67, type: 3}
    - {fileID: 8300000, guid: a791862bf7cf8a64da1f79e9724aa4f0, type: 3}
    - {fileID: 8300000, guid: 1d193d72000c0b840a3ebae10d655039, type: 3}
    - {fileID: 8300000, guid: b33833c05c7faac40a180bcf08f13f89, type: 3}
    - {fileID: 8300000, guid: 83830b70c148dda4db83754d86e06aba, type: 3}
    - {fileID: 8300000, guid: c6344666f3cdb474b87abb929041e509, type: 3}
    - {fileID: 8300000, guid: fa4aec91d904d82489f74a75b3ab499c, type: 3}
    - {fileID: 8300000, guid: 34e1b58145c0e9b4e8b7a89f1b9d1f73, type: 3}
    - {fileID: 8300000, guid: 14522ed6777536a44959c87bf3c4b940, type: 3}
    - {fileID: 8300000, guid: 1289f6c22807bb64d8ab61f56086bfc5, type: 3}
    - {fileID: 8300000, guid: 73620942aab52344bbcaee7fd8bc03bb, type: 3}
    - {fileID: 8300000, guid: 6ca4d80208706554f9363c3bed231159, type: 3}
    - {fileID: 8300000, guid: c0c63b6a4a2640e4bb0fe2d101ec7d74, type: 3}
    - {fileID: 8300000, guid: b94b638b486319a4bb238b6d4dfd1e4e, type: 3}
    - {fileID: 8300000, guid: c18558272639e4d4c8e400b8fe55a6fb, type: 3}
    - {fileID: 8300000, guid: 8ccc99c5457f98b40bda0feb0a88ebd9, type: 3}
    - {fileID: 8300000, guid: e92ee13720d29024288876985f2e11c5, type: 3}
    - {fileID: 8300000, guid: 5d20b8d92c4ee384591f9e4f13fa819f, type: 3}
    - {fileID: 8300000, guid: 4e5dff18ea0569c4b9d50562af51f3b5, type: 3}
    - {fileID: 8300000, guid: 76345635f8a3a934fadb7278236aae50, type: 3}
    - {fileID: 8300000, guid: d49866998b7f91446851cb9ebfaa7127, type: 3}
    - {fileID: 8300000, guid: 6352d4455f971ec4281170a548256d7f, type: 3}
    - {fileID: 8300000, guid: 33ae812bad8bf4a418d4a32545c36ef8, type: 3}
    - {fileID: 8300000, guid: 56b5525b3488ed844a5a34e2b3226964, type: 3}
    - {fileID: 8300000, guid: 62a4cd7fd52844d4491f3a23ee5a5140, type: 3}
    - {fileID: 8300000, guid: 8a8d681cb2f87744e9c8c11a59b20a2a, type: 3}
    - {fileID: 8300000, guid: 2d6bbc3de55bdea4783f649970dee911, type: 3}
    - {fileID: 8300000, guid: a1b7a55fa096c284a8c261045c591157, type: 3}
    - {fileID: 8300000, guid: 750438726de91b3489f6c8c1a9203471, type: 3}
    - {fileID: 8300000, guid: 9da9d3e4686793e418d164a99fbb4ab3, type: 3}
    - {fileID: 8300000, guid: e32d560907cdd964d838fd74bc9a209e, type: 3}
    - {fileID: 8300000, guid: 2b0e0bde560de594fadc6cd5f5c747bb, type: 3}
    - {fileID: 8300000, guid: 7d870adc0fd5b9c4ca513b7b8dfde48b, type: 3}
    - {fileID: 8300000, guid: c3d0ba3d306149841b328780605c9a4d, type: 3}
    - {fileID: 8300000, guid: a4bf0e19c3ff446468404222be385918, type: 3}
    - {fileID: 8300000, guid: ae4372f942ae313478a6cb3e5c3abade, type: 3}
    - {fileID: 8300000, guid: 45c2371a21623ae45a7b31d81dda638d, type: 3}
    - {fileID: 8300000, guid: 76cb7993fda1f8647b3f5ab5877948ef, type: 3}
    - {fileID: 8300000, guid: 76cb7993fda1f8647b3f5ab5877948ef, type: 3}
    - {fileID: 8300000, guid: 799beb359f5db7d4b83ddeaf6526ed16, type: 3}
    - {fileID: 8300000, guid: 1702ce57f23c7d84d95e5ad7dead940d, type: 3}
    - {fileID: 8300000, guid: 571a58a4459848d4f9711c4d200b9b13, type: 3}
    - {fileID: 8300000, guid: f406e0b28344c624f94a4f519bfed633, type: 3}
    - {fileID: 8300000, guid: 7e391637e1e0bc3488db4a820ea038a7, type: 3}
    - {fileID: 8300000, guid: 465a81b1a3e0ea343bb4bf9f92761f6c, type: 3}
    - {fileID: 8300000, guid: 6f05982be4846f64caae65a8cf135f0e, type: 3}
    - {fileID: 8300000, guid: 2da5411f8831cae46b3184042c45f8c6, type: 3}
    - {fileID: 8300000, guid: 00d587a11345a0f49b927cf765b28faf, type: 3}
    - {fileID: 8300000, guid: d6d85097af7974f4fa36008cab96010b, type: 3}
    - {fileID: 8300000, guid: 70a3947acba5266449ea987f90f2f0de, type: 3}
    - {fileID: 8300000, guid: c3904c083b6afe449ac27e4245208ab4, type: 3}
    - {fileID: 8300000, guid: 1ed3338be2e056c4a8bd9191048beddc, type: 3}
    - {fileID: 8300000, guid: 8d64e69cf1a799e418bed0f603009bdb, type: 3}
    - {fileID: 8300000, guid: fd375ab500af878469ff600687fbd7e4, type: 3}
    - {fileID: 8300000, guid: b9a9cf1c06907f34b89103eeaf052d1c, type: 3}
    - {fileID: 8300000, guid: 8301c21a71822ba4eaf5de7feeac843b, type: 3}
    - {fileID: 8300000, guid: c52eb3f52a995cd48a8703fd354f79d9, type: 3}
    - {fileID: 8300000, guid: b38e192f1ef87104abc139e737416ce6, type: 3}
    - {fileID: 8300000, guid: 28ba6904486e1a647895c91092d8349b, type: 3}
    - {fileID: 8300000, guid: 350d1acc69bbb254b8949a8442e59687, type: 3}
    - {fileID: 8300000, guid: a5d5adc4d0047004ea651fa1881f09b7, type: 3}
    - {fileID: 8300000, guid: 783fb0420c07a2144903d7a957d4a08a, type: 3}
    - {fileID: 8300000, guid: 8b992e296ab9867408e6cff84996c141, type: 3}
    - {fileID: 8300000, guid: dce5fa5e586d0c14a85a4260898dd291, type: 3}
    - {fileID: 8300000, guid: 7a27ac4aa5018334fa6f19d098e4846c, type: 3}
    - {fileID: 8300000, guid: 2c8ff6cdcd950584daf2f75e88b1b512, type: 3}
    fx:
    - {fileID: 8300000, guid: 25e1f822d1b1dbe46925a3b679306ad9, type: 3}
    - {fileID: 8300000, guid: eab880c7fd5188647ba1573bcff2200e, type: 3}
    - {fileID: 8300000, guid: ac940b1fc0d763246af706124eb0348c, type: 3}
    - {fileID: 8300000, guid: 96df8bd66944ebb4ba6079c515cb564d, type: 3}
    - {fileID: 8300000, guid: 28af4c728dc45a84ebcfa5a9c9ed8f60, type: 3}
    - {fileID: 8300000, guid: 3ee04c38d6d500d429ff78169848c3c6, type: 3}
    - {fileID: 8300000, guid: 1d41c45c37d2ef446a70ae9e5a2a57d9, type: 3}
    - {fileID: 8300000, guid: 92f974c552dec2f4eafaf6dbc6ae0bba, type: 3}
    - {fileID: 8300000, guid: f191819e3d975d04e9950f840f39c4f1, type: 3}
    - {fileID: 8300000, guid: 102ceed0eeaa4e04cacf084862fa5901, type: 3}
    - {fileID: 8300000, guid: 058ffd34a38664844a636ba312b8bdb0, type: 3}
    - {fileID: 8300000, guid: 431ee73379d25c746b9b0ac64f340b05, type: 3}
    - {fileID: 8300000, guid: 84b2d4235bceec343b1909d1ea39cfab, type: 3}
    - {fileID: 8300000, guid: 05e8e30e7cb26b343bbbc89035e26f9e, type: 3}
    - {fileID: 8300000, guid: b0e0db9953bd3b04585d5ff9f2e71356, type: 3}
    - {fileID: 8300000, guid: 4f89cf32cfb8e7c40a7fa559668059f8, type: 3}
    - {fileID: 8300000, guid: e0c9c5759d633174c875c5f92eb20527, type: 3}
    - {fileID: 8300000, guid: d29fe9fbfb7d008498b0ead8e0aaa55d, type: 3}
    - {fileID: 8300000, guid: 56496e99edff1ed48bad2f12ec0161c9, type: 3}
    - {fileID: 8300000, guid: cfe5662eb58b2d14c8d835840f1cff34, type: 3}
    - {fileID: 8300000, guid: 43f9de72b3e20a34baef923ab6fdf91a, type: 3}
    - {fileID: 8300000, guid: 40d512e33a6214649a49b8dca31b2585, type: 3}
    - {fileID: 8300000, guid: dc97e3a5b46243845a34b107799d047c, type: 3}
    - {fileID: 8300000, guid: b32228caf9e683c43a11e428eb0f92a1, type: 3}
    - {fileID: 8300000, guid: f393ac60eb322444fb2d99bb54ca1999, type: 3}
    - {fileID: 8300000, guid: 727011788601772469470890ee45e213, type: 3}
    - {fileID: 8300000, guid: af0f673c9a0f7d54b86ea3feee6ac05f, type: 3}
    - {fileID: 8300000, guid: 62791a6e04e3bda4091b71b3b73c9fcd, type: 3}
    - {fileID: 8300000, guid: 5ed638984710d8645a2887b2e989fb58, type: 3}
    - {fileID: 8300000, guid: ab2871c7e934df646bf009b5cad8bdfe, type: 3}
    - {fileID: 8300000, guid: 669c468e2e2666d439a084a6d64b016a, type: 3}
    - {fileID: 8300000, guid: c4776761b437b64479fe176449449d7b, type: 3}
    - {fileID: 8300000, guid: f26fe60224fc7cb4096a0c2c3f74f2b6, type: 3}
    - {fileID: 8300000, guid: 03d1b6c95c84118439b5f49a98cc6bbf, type: 3}
    - {fileID: 8300000, guid: d797a7999ac3167478284337c6690101, type: 3}
    - {fileID: 8300000, guid: 5371489d321b82247a204f5755b60fd5, type: 3}
    - {fileID: 8300000, guid: 92c8653b30af54c47879022fb72f0982, type: 3}
    - {fileID: 8300000, guid: ef365968393c2e144b62aee9d2955bf9, type: 3}
    - {fileID: 8300000, guid: 475eab6653a315245a0376ac1c38d0d7, type: 3}
    - {fileID: 8300000, guid: 5e90b0864063eef47a49c2c6dfda7a8a, type: 3}
    - {fileID: 8300000, guid: 389662b395ef5bb4b82a6eff30f0cbeb, type: 3}
    - {fileID: 8300000, guid: 4b7e4889c954d1148aea556f1435041e, type: 3}
    - {fileID: 8300000, guid: 97c2705469d61d1439b38f66151b3d19, type: 3}
    - {fileID: 8300000, guid: 77b7c57783d0b5e4a8ec2add81b2750b, type: 3}
    - {fileID: 8300000, guid: 1ea8db9088b539a478a7577560f907f0, type: 3}
    - {fileID: 8300000, guid: 0021248ab45a5b144a70ec155732f79a, type: 3}
    - {fileID: 8300000, guid: 90bbc857127d2314f94ff5a976c062f5, type: 3}
    - {fileID: 8300000, guid: 7b33177ce51d8cb479cbe57c28af5263, type: 3}
    - {fileID: 8300000, guid: 02601b8db2b66394b9eca396913afd61, type: 3}
    - {fileID: 8300000, guid: 7bc78f9e72650f14292766b7d462c77a, type: 3}
    - {fileID: 8300000, guid: 7f3377474d5104c4099116ae4ac02187, type: 3}
    - {fileID: 8300000, guid: e472a36d7aea3c242a1792778ced7703, type: 3}
    - {fileID: 8300000, guid: 1367514e2096e7548b78f205e496c98e, type: 3}
    - {fileID: 8300000, guid: 83faabf0a140ab348aa52cf9434ed56f, type: 3}
    - {fileID: 8300000, guid: b06309eac6d066146857ed80b39ccf8a, type: 3}
    - {fileID: 8300000, guid: 13800dc40a1255746a4f0d7429a1c5e3, type: 3}
    - {fileID: 8300000, guid: ad05495a9b8bddc4f9fffc8e7fa92e0e, type: 3}
    - {fileID: 8300000, guid: 1aea80dcc0cdce24d9c10c54294c69f3, type: 3}
    - {fileID: 8300000, guid: 708356a5d35dde54d9ad8416591705dc, type: 3}
    - {fileID: 8300000, guid: 7dfeb320b166e9c4f8c99751f894ba39, type: 3}
    - {fileID: 8300000, guid: 20b694c00c5cb544488231d16baa7c19, type: 3}
    - {fileID: 8300000, guid: 5b4a687f4e829774aac0bd3198fe321f, type: 3}
    - {fileID: 8300000, guid: cf80e25f8eaea6b4e81621e3b40b1e36, type: 3}
    - {fileID: 8300000, guid: 0c67ce6b4a44346459f3629f174446e0, type: 3}
    - {fileID: 8300000, guid: 0aa3d45863d216e42a3f15c3983bb449, type: 3}
    - {fileID: 8300000, guid: 07658416c280a78409e28502ca59c7a0, type: 3}
    - {fileID: 8300000, guid: ef2ab102ea3f7c643aafb89603bd3cda, type: 3}
    - {fileID: 8300000, guid: 19719178b04d79443984ed3db08d779d, type: 3}
    - {fileID: 8300000, guid: fd3a10fddcceabb4a9b07b1df84a9ff1, type: 3}
    - {fileID: 8300000, guid: 3c004e3f225f43c4f94a46c5ed5776de, type: 3}
    - {fileID: 8300000, guid: 0a928c64e93750f498fb67487b42da78, type: 3}
    - {fileID: 8300000, guid: 08cf778f703a2fb40ba3d0f94568e8c8, type: 3}
    r2d2:
    - {fileID: 8300000, guid: 88fe56a441057ce40a32142ffd0499da, type: 3}
    - {fileID: 8300000, guid: 0c6295515ab67784388d6fd6efca3afd, type: 3}
    - {fileID: 8300000, guid: 2b686bbdc6a983547b6bf30bf33c9221, type: 3}
    - {fileID: 8300000, guid: ec89a59b2482b0745a6095d3a338bb1d, type: 3}
    - {fileID: 8300000, guid: 6958fb81e8613fb42ad007dbab1630e4, type: 3}
    - {fileID: 8300000, guid: 402c895ed981c3d4791c86911b5d5def, type: 3}
    - {fileID: 8300000, guid: 72abff3566521a04093cc47a577524ce, type: 3}
    - {fileID: 8300000, guid: 39e48a21b7f3db1428adfcc408879b8e, type: 3}
    - {fileID: 8300000, guid: eb9916e9f37e39e4fa8929c6c45f801b, type: 3}
    - {fileID: 8300000, guid: 93319b7349310734fa44a5fb3c6ce994, type: 3}
    - {fileID: 8300000, guid: 4c83bd27366dbf64295bcfddd4c17bbe, type: 3}
    - {fileID: 8300000, guid: cc3fb63b88cc30641823fae01c262d11, type: 3}
    - {fileID: 8300000, guid: 76bb85f35b5d5c349909e194e6500bf5, type: 3}
    - {fileID: 8300000, guid: 3af04b9f26634a74b923617e5995423e, type: 3}
    - {fileID: 8300000, guid: 3e02b037d9940be43942c771fd801b2d, type: 3}
    - {fileID: 8300000, guid: 68d56f67d2cc6784a994e59cb428dd9b, type: 3}
    - {fileID: 8300000, guid: 726bcfb5a8a095b44b1d985301f4e3a7, type: 3}
    - {fileID: 8300000, guid: 63473a58038c10d44aeb4daac7099901, type: 3}
    - {fileID: 8300000, guid: 4d96b00af6cde5543951efa64adfdf6b, type: 3}
    rap:
    - {fileID: 8300000, guid: 4a2100b169d2df24dab0a7b107545065, type: 3}
    - {fileID: 8300000, guid: 2a18d0759b5e8eb469f2240293810fce, type: 3}
    - {fileID: 8300000, guid: 660ac1434c9d23a48be861dd9f937291, type: 3}
    - {fileID: 8300000, guid: a0b1b737aefd3c1469b5b89091e8f6be, type: 3}
    - {fileID: 8300000, guid: 6c4a719391ed4ec48bfd3927d0b69234, type: 3}
    - {fileID: 8300000, guid: 8fddbc910cc2caa4287a40a107e93068, type: 3}
    - {fileID: 8300000, guid: 7969930da64ddfd4ca29c01eae2d1678, type: 3}
    - {fileID: 8300000, guid: fff4e4752f7601347811c638d86e52a2, type: 3}
    - {fileID: 8300000, guid: d80233c219ce009439ecf83090c1029d, type: 3}
    - {fileID: 8300000, guid: 80e13618999b78745bf1b39394651e87, type: 3}
    - {fileID: 8300000, guid: 3f168c1f3f170f44cb9ab41859adfcd0, type: 3}
    - {fileID: 8300000, guid: cc1919fb937155a4aa1b1ec2200b9dc8, type: 3}
    - {fileID: 8300000, guid: 24ff49bb187881f458830e967b50afb0, type: 3}
    expression:
    - {fileID: 8300000, guid: a75b0a3f36a75cb46a5e0d9343d0025c, type: 3}
    - {fileID: 8300000, guid: 85ff293327dcdbd44bd6eceb707b8c3e, type: 3}
    - {fileID: 8300000, guid: 39b9153f29b0c3c489c76b39f7841c08, type: 3}
    - {fileID: 8300000, guid: efef87d47d7d0524fac8511f9475fe1c, type: 3}
    - {fileID: 8300000, guid: 558626225683fc04fb2968caf9f31f2a, type: 3}
    - {fileID: 8300000, guid: 7f5a28effe154a64683ce9361b6dec4d, type: 3}
    - {fileID: 8300000, guid: c48bd454ddff3a64ea03fa5fd38fdb99, type: 3}
    - {fileID: 8300000, guid: 0104f01fb5d118145acc3e0ec1ff450b, type: 3}
    - {fileID: 8300000, guid: 9621a21c12424d44282ee9e95a0354ab, type: 3}
    - {fileID: 8300000, guid: b8fb1580b1fa14d45b39e5b82b5c7c3b, type: 3}
    - {fileID: 8300000, guid: 5710c19ecf304aa44b6394736ead2062, type: 3}
    - {fileID: 8300000, guid: eaed01d792a45cb4bacd76dae95413d4, type: 3}
    - {fileID: 8300000, guid: ad4e03e5134047d458a201e22fba4f2c, type: 3}
    - {fileID: 8300000, guid: ad66f69af3f4ea44b84b9b73e081d53e, type: 3}
    - {fileID: 8300000, guid: 280ea8bf5a25adf4da5082222be2b7dc, type: 3}
    - {fileID: 8300000, guid: 220a438c5fed8fa4f8d23b9bd273e350, type: 3}
    - {fileID: 8300000, guid: 806dcd91498584b4d87b0304f9526835, type: 3}
    - {fileID: 8300000, guid: af46f0ad324ce044fa38070718766a0a, type: 3}
    - {fileID: 8300000, guid: 461292fa03d16054f8c2638387495665, type: 3}
    - {fileID: 8300000, guid: 8b8fcfd09bf317f469fd66712fa64b58, type: 3}
    - {fileID: 8300000, guid: 69a364e3893849f49bbd489ecbbab8fe, type: 3}
    - {fileID: 8300000, guid: 8e50aff42057f1044a31eb5d330fedf8, type: 3}
    - {fileID: 8300000, guid: a2665ec83bd6fe94db3796f5245c8c95, type: 3}
    - {fileID: 8300000, guid: c0cc65b4c2611fe4792ac5acc5fe9ec7, type: 3}
    - {fileID: 8300000, guid: 5925a583614dd5e41b54c853292d670f, type: 3}
    - {fileID: 8300000, guid: fee43890ef56e4e448aefe5c83f7a9df, type: 3}
    - {fileID: 8300000, guid: e3dc649052c36d94793281237d079972, type: 3}
    - {fileID: 8300000, guid: 55ddef80596211c4c988b3a87ee69c9e, type: 3}
    - {fileID: 8300000, guid: 41ace0096edb8394a8d63758455eace0, type: 3}
    - {fileID: 8300000, guid: e7384ff491b663747b558c349c63587a, type: 3}
    - {fileID: 8300000, guid: 910f09b8a7f4e1b4db61fc561e07d9eb, type: 3}
    - {fileID: 8300000, guid: 7b3edd45445e2314c978daf23cb14d9c, type: 3}
    - {fileID: 8300000, guid: 757860855261c2b45b6deee16dbe5a74, type: 3}
    - {fileID: 8300000, guid: 80a3b046158d82944b4934812f365aa4, type: 3}
    - {fileID: 8300000, guid: 434bd6ed9e73b0c43bb3f8f02eb0c0e3, type: 3}
    rythme:
    - {fileID: 8300000, guid: 4984574250e04ad4a96017aed08da5f8, type: 3}
    - {fileID: 8300000, guid: b975f63797eb230419c75a9c857b6900, type: 3}
    - {fileID: 8300000, guid: ad84b0f18fbc6a44ebd4954ce874121e, type: 3}
    - {fileID: 8300000, guid: cf1c5108ec5f66a4b94f801fbcdc32ff, type: 3}
    - {fileID: 8300000, guid: f6c834880f7483f48b194a3272302581, type: 3}
    - {fileID: 8300000, guid: d5a9ee355dac3e1479755973cbc4943c, type: 3}
    - {fileID: 8300000, guid: 432ad68494a72eb41b814c9aa360650f, type: 3}
    - {fileID: 8300000, guid: eb4f9de350bff8949aea1f2d655ec7ea, type: 3}
    - {fileID: 8300000, guid: f12e3a5a574233d4fa2ecf72a0476de1, type: 3}
    - {fileID: 8300000, guid: 49f34ba662535774b814bcbabf568e99, type: 3}
    - {fileID: 8300000, guid: a323a3c1e16868c4da8ffb6d6afc8a08, type: 3}
    - {fileID: 8300000, guid: ecb1d3c2b8e1ce14d8db256c30945d16, type: 3}
    - {fileID: 8300000, guid: 4582f724253dd7e48a703e8ec7cd27b5, type: 3}
    - {fileID: 8300000, guid: 3adeee3d75df51e44ae0dd59cff2ae22, type: 3}
    - {fileID: 8300000, guid: 47ec27eee448e974c85cce25becad4d8, type: 3}
    - {fileID: 8300000, guid: c67eddecaaae28548989cfa969286da8, type: 3}
    - {fileID: 8300000, guid: 2f4d3f6a6ccc67a4eb733b02486d6470, type: 3}
    - {fileID: 8300000, guid: 4119870ef9d10f641b496f968af94ce2, type: 3}
    - {fileID: 8300000, guid: 3b85fea779c198c4cb5e5fe1886f812e, type: 3}
    - {fileID: 8300000, guid: 0620e73d5c47aa846a5dd26676562b4b, type: 3}
    - {fileID: 8300000, guid: 73b0d9e2ae462614f90b54f9193ed2b8, type: 3}
    - {fileID: 8300000, guid: 5fdd691b2f3937446aeaf45d8acb0228, type: 3}
    - {fileID: 8300000, guid: ca98f729c18c7b74895c8a143d507f9f, type: 3}
    - {fileID: 8300000, guid: 8adddbef56d69364281930933db2584a, type: 3}
    - {fileID: 8300000, guid: aad865484465ab84b86c23cbddc5a379, type: 3}
    - {fileID: 8300000, guid: 02ce883a117480a41bb5fe6fdadcd4c3, type: 3}
    - {fileID: 8300000, guid: b9d84751bbfdca844a49eec662982bee, type: 3}
    - {fileID: 8300000, guid: 01a5e8754beff4a4cb18ccae57c2388c, type: 3}
    - {fileID: 8300000, guid: e30c103d3ed66f94fbb3086e3b38c8d0, type: 3}
    - {fileID: 8300000, guid: 3e8521b5f06362440b9a4b8655c4802e, type: 3}
    - {fileID: 8300000, guid: 850ce834a7c8d284e82d478094417363, type: 3}
    - {fileID: 8300000, guid: 4b09ba171a24a1c4089091c000491678, type: 3}
    - {fileID: 8300000, guid: 33713861b3c3d5a4ea1561ecdd2c43e3, type: 3}
    - {fileID: 8300000, guid: 5c691a3fa3a22a14091d98dc190bd9a7, type: 3}
    - {fileID: 8300000, guid: 732e1ca84d9482a43a188733d31505b5, type: 3}
    - {fileID: 8300000, guid: 8ce1c40ec4325214a968ee4895e1dcd2, type: 3}
    - {fileID: 8300000, guid: 40e026f81f5ea714a8a687753b10d271, type: 3}
    - {fileID: 8300000, guid: 5c8b1e0c261c2494bbdf0291d8a1deea, type: 3}
    - {fileID: 8300000, guid: a0639e21d2a85b0429bea43b1d950d12, type: 3}
    - {fileID: 8300000, guid: 88b297e2288371348bba99cf6969fd92, type: 3}
    - {fileID: 8300000, guid: be387de52f08b0e42898001d2f9208ce, type: 3}
    - {fileID: 8300000, guid: c0a5f57a54c90924f9e6236553fea4a0, type: 3}
    - {fileID: 8300000, guid: 326ae7637d94a8d4783b83be26e38459, type: 3}
    - {fileID: 8300000, guid: a659a70401fc973468f8a39cc65cecaa, type: 3}
    - {fileID: 8300000, guid: 172b712b44727fe4da9196c5a634087e, type: 3}
    - {fileID: 8300000, guid: de8720646755d0843b5ce626e9a1fdc9, type: 3}
    - {fileID: 8300000, guid: 14d32aad71d596f4fa4d1b909d510921, type: 3}
    - {fileID: 8300000, guid: d15e09599af9647428684a30c1fb1db2, type: 3}
    - {fileID: 8300000, guid: 1302d74e957e1934bb5d5f9c0a599948, type: 3}
    - {fileID: 8300000, guid: 605a30b4faf06e24a8447604f210ae62, type: 3}
    - {fileID: 8300000, guid: eecd4481dec9ed34db35044034026b14, type: 3}
    - {fileID: 8300000, guid: 1864a195a1e691d44a6af34c34cad9a1, type: 3}
    - {fileID: 8300000, guid: 89c574dceea77434f81d861e6aecf13c, type: 3}
    - {fileID: 8300000, guid: 96ba4717fbf92e642a0701518ceb03be, type: 3}
    - {fileID: 8300000, guid: b655be98fccc1a642a4c7bc866dd1496, type: 3}
    - {fileID: 8300000, guid: 962378b363d3e304f9a13c6469c8e98b, type: 3}
    - {fileID: 8300000, guid: 61250bb76dbdaca4f96937edd9fbae98, type: 3}
    maria:
    - {fileID: 8300000, guid: 6fc5f950603f79a43af561d9a3242daf, type: 3}
    - {fileID: 8300000, guid: 925975a75de984645a9cb194fc26e805, type: 3}
    - {fileID: 8300000, guid: 03ba8f5b73e51354691f15bb41fdab06, type: 3}
    - {fileID: 8300000, guid: 0c1b75fa56b236647a7a6f9d81e75774, type: 3}
    - {fileID: 8300000, guid: dcbf26ff5aea19b42a1e9b43ab8c0669, type: 3}
    - {fileID: 8300000, guid: 4eea91dd0b1cf8a41afe583a5ef3eaf4, type: 3}
    - {fileID: 8300000, guid: f357baf2aa1b39146aae450f2e8e4858, type: 3}
    - {fileID: 8300000, guid: 66c20d54dcf99c34a817d7b989dab79f, type: 3}
    - {fileID: 8300000, guid: a39ac69f662f31d428fd5a985f09a95f, type: 3}
    - {fileID: 8300000, guid: e31896ce5453c9747b754e27b25f6eb9, type: 3}
    - {fileID: 8300000, guid: 41c7c672304ec24499259160fb1bffab, type: 3}
    - {fileID: 8300000, guid: c8f7c8fabef7356488f6b201ee891d80, type: 3}
    activation:
    - {fileID: 8300000, guid: c925c4024ec90794c87a66fb0b2af331, type: 3}
    - {fileID: 8300000, guid: 6ebc44e28bc26494192c75eb0e869de8, type: 3}
    - {fileID: 8300000, guid: 250b9d630de8d2d4f920281d541785f0, type: 3}
    - {fileID: 8300000, guid: 561aefc0a123d524b92e6bfd915977b4, type: 3}
    bird:
    - {fileID: 8300000, guid: 11ab9367968805a4aa28f78e0cd0a016, type: 3}
    video:
    - {fileID: 8300000, guid: c46eb542a685ccf49a83c17646799f90, type: 3}
    - {fileID: 8300000, guid: 035f1f0c52449f040bdb74a6873d6738, type: 3}
